error: derive-deftly has been updated!
       Please check the changelog for breaking changes since 0.2.x
       Search for section titles containing "template export semver".
 --> ui/badsemver.rs:3:31
  |
3 | template_export_semver_check!("0.2");
  |                               ^^^^^

error: derive-deftly has been updated!
       Please check the changelog for breaking changes since 0.2.x
       Search for section titles containing "template export semver".
 --> ui/badsemver.rs:4:31
  |
4 | template_export_semver_check!("0.2.3");
  |                               ^^^^^^^

error: declared version is greater than this version of derive-deftly!
 --> ui/badsemver.rs:5:31
  |
5 | template_export_semver_check!("1000000000.0");
  |                               ^^^^^^^^^^^^^^

error: expected string literal
 --> ui/badsemver.rs:7:31
  |
7 | template_export_semver_check!(garbage);
  |                               ^^^^^^^

error: bad number: invalid digit found in string
 --> ui/badsemver.rs:8:31
  |
8 | template_export_semver_check!("garbage");
  |                               ^^^^^^^^^

error: too many components in version number
 --> ui/badsemver.rs:9:31
  |
9 | template_export_semver_check!("1.2.3.4");
  |                               ^^^^^^^^^
