error: proc macro panicked
  --> minimal-ui/disabled.rs:14:1
   |
14 | / derive_deftly_adhoc! {
15 | |     S expect items:
16 | | }
   | |_^
   |
   = help: message: output syntax checking not supported, enable `expect` feature of `derive-deftly`

error: ${Xmeta as expr} used but cargo feature meta-as-expr disabled
  --> minimal-ui/disabled.rs:19:33
   |
19 |     const X: () = ${tmeta(d) as expr};
   |                                 ^^^^

error: ${Xmeta as items} used but cargo feature meta-as-items disabled
  --> minimal-ui/disabled.rs:23:19
   |
23 |     ${tmeta(i) as items};
   |                   ^^^^^

error: derive-deftly's `beta_deftly` template option is only available when the `beta` cargo feature is also enabled
  --> minimal-ui/disabled.rs:26:7
   |
26 |     S beta_deftly:
   |       ^^^^^^^^^^^

error: beta derive-deftly feature used, which requires both the `beta` cargo feature and the `beta_deftly` template option
  --> minimal-ui/disabled.rs:30:22
   |
30 |     ${fmeta(missing) default { 42 }}
   |                      ^^^^^^^
